{
    "aggregations":{
       "access_right":{
          "buckets":[
             {
                "doc_count":2804751,
                "key":"open"
             },
             {
                "doc_count":58955,
                "key":"closed"
             },
             {
                "doc_count":11380,
                "key":"restricted"
             },
             {
                "doc_count":1291,
                "key":"embargoed"
             }
          ],
          "doc_count_error_upper_bound":0,
          "sum_other_doc_count":0
       },
       "file_type":{
          "buckets":[
             {
                "doc_count":1236799,
                "key":"pdf"
             },
             {
                "doc_count":454603,
                "key":"html"
             },
             {
                "doc_count":421326,
                "key":"png"
             },
             {
                "doc_count":379414,
                "key":"jpg"
             },
             {
                "doc_count":152872,
                "key":"zip"
             },
             {
                "doc_count":37331,
                "key":"xlsx"
             },
             {
                "doc_count":32994,
                "key":"txt"
             },
             {
                "doc_count":29237,
                "key":"docx"
             },
             {
                "doc_count":28484,
                "key":"csv"
             },
             {
                "doc_count":19895,
                "key":"xml"
             }
          ],
          "doc_count_error_upper_bound":0,
          "sum_other_doc_count":206715
       },
       "keywords":{
          "buckets":[
             {
                "doc_count":1191421,
                "key":"Taxonomy"
             },
             {
                "doc_count":1190487,
                "key":"Biodiversity"
             },
             {
                "doc_count":814488,
                "key":"Animalia"
             },
             {
                "doc_count":621992,
                "key":"Arthropoda"
             },
             {
                "doc_count":436038,
                "key":"Insecta"
             },
             {
                "doc_count":270755,
                "key":"Terrestrial"
             },
             {
                "doc_count":270658,
                "key":"Herbarium"
             },
             {
                "doc_count":121698,
                "key":"Coleoptera"
             },
             {
                "doc_count":109849,
                "key":"Chordata"
             },
             {
                "doc_count":97503,
                "key":"Arachnida"
             }
          ],
          "doc_count_error_upper_bound":0,
          "sum_other_doc_count":7056845
       },
       "type":{
          "buckets":[
             {
                "doc_count":1719838,
                "key":"publication",
                "subtype":{
                   "buckets":[
                      {
                         "doc_count":1087607,
                         "key":"article"
                      },
                      {
                         "doc_count":454456,
                         "key":"taxonomictreatment"
                      },
                      {
                         "doc_count":76373,
                         "key":"conferencepaper"
                      },
                      {
                         "doc_count":18712,
                         "key":"report"
                      },
                      {
                         "doc_count":17926,
                         "key":"other"
                      },
                      {
                         "doc_count":13249,
                         "key":"deliverable"
                      },
                      {
                         "doc_count":13083,
                         "key":"book"
                      },
                      {
                         "doc_count":12090,
                         "key":"section"
                      },
                      {
                         "doc_count":8358,
                         "key":"thesis"
                      },
                      {
                         "doc_count":7043,
                         "key":"preprint"
                      },
                      {
                         "doc_count":5430,
                         "key":"workingpaper"
                      },
                      {
                         "doc_count":2554,
                         "key":"technicalnote"
                      },
                      {
                         "doc_count":705,
                         "key":"proposal"
                      },
                      {
                         "doc_count":553,
                         "key":"softwaredocumentation"
                      },
                      {
                         "doc_count":485,
                         "key":"milestone"
                      },
                      {
                         "doc_count":375,
                         "key":"datamanagementplan"
                      },
                      {
                         "doc_count":352,
                         "key":"peerreview"
                      },
                      {
                         "doc_count":268,
                         "key":"patent"
                      },
                      {
                         "doc_count":219,
                         "key":"annotationcollection"
                      }
                   ],
                   "doc_count_error_upper_bound":0,
                   "sum_other_doc_count":0
                }
             },
             {
                "doc_count":791459,
                "key":"image",
                "subtype":{
                   "buckets":[
                      {
                         "doc_count":504479,
                         "key":"figure"
                      },
                      {
                         "doc_count":280689,
                         "key":"photo"
                      },
                      {
                         "doc_count":4607,
                         "key":"drawing"
                      },
                      {
                         "doc_count":1123,
                         "key":"other"
                      },
                      {
                         "doc_count":292,
                         "key":"plot"
                      },
                      {
                         "doc_count":269,
                         "key":"diagram"
                      }
                   ],
                   "doc_count_error_upper_bound":0,
                   "sum_other_doc_count":0
                }
             },
             {
                "doc_count":183300,
                "key":"dataset",
                "subtype":{
                   "buckets":[
                      
                   ],
                   "doc_count_error_upper_bound":0,
                   "sum_other_doc_count":0
                }
             },
             {
                "doc_count":96839,
                "key":"software",
                "subtype":{
                   "buckets":[
                      
                   ],
                   "doc_count_error_upper_bound":0,
                   "sum_other_doc_count":0
                }
             },
             {
                "doc_count":37700,
                "key":"presentation",
                "subtype":{
                   "buckets":[
                      
                   ],
                   "doc_count_error_upper_bound":0,
                   "sum_other_doc_count":0
                }
             },
             {
                "doc_count":18152,
                "key":"other",
                "subtype":{
                   "buckets":[
                      
                   ],
                   "doc_count_error_upper_bound":0,
                   "sum_other_doc_count":0
                }
             },
             {
                "doc_count":15767,
                "key":"poster",
                "subtype":{
                   "buckets":[
                      
                   ],
                   "doc_count_error_upper_bound":0,
                   "sum_other_doc_count":0
                }
             },
             {
                "doc_count":7514,
                "key":"video",
                "subtype":{
                   "buckets":[
                      
                   ],
                   "doc_count_error_upper_bound":0,
                   "sum_other_doc_count":0
                }
             },
             {
                "doc_count":4472,
                "key":"lesson",
                "subtype":{
                   "buckets":[
                      
                   ],
                   "doc_count_error_upper_bound":0,
                   "sum_other_doc_count":0
                }
             },
             {
                "doc_count":976,
                "key":"physicalobject",
                "subtype":{
                   "buckets":[
                      
                   ],
                   "doc_count_error_upper_bound":0,
                   "sum_other_doc_count":0
                }
             }
          ],
          "doc_count_error_upper_bound":0,
          "sum_other_doc_count":360
       }
    },
    "hits":{
       "hits":[
          {
             "conceptdoi":"10.5281/zenodo.7752189",
             "conceptrecid":"7752189",
             "created":"2023-03-20T10:57:34.801106+00:00",
             "doi":"10.5281/zenodo.7752190",
             "files":[
                {
                   "bucket":"c68abd0f-4bb0-4953-be4d-dd291cdee59a",
                   "checksum":"md5:49ab91a77d331e1766d40c7426cf00bb",
                   "key":"414665653.pdf",
                   "links":{
                      "self":"https://zenodo.org/api/files/c68abd0f-4bb0-4953-be4d-dd291cdee59a/414665653.pdf"
                   },
                   "size":283293,
                   "type":"pdf"
                }
             ],
             "id":7752190,
             "links":{
                "badge":"https://zenodo.org/badge/doi/10.5281/zenodo.7752190.svg",
                "bucket":"https://zenodo.org/api/files/c68abd0f-4bb0-4953-be4d-dd291cdee59a",
                "conceptbadge":"https://zenodo.org/badge/doi/10.5281/zenodo.7752189.svg",
                "conceptdoi":"https://doi.org/10.5281/zenodo.7752189",
                "doi":"https://doi.org/10.5281/zenodo.7752190",
                "html":"https://zenodo.org/record/7752190",
                "latest":"https://zenodo.org/api/records/7752190",
                "latest_html":"https://zenodo.org/record/7752190",
                "self":"https://zenodo.org/api/records/7752190"
             },
             "metadata":{
                "access_right":"open",
                "access_right_category":"success",
                "creators":[
                   {
                      "affiliation":"University of Timor Leste (UNPAZ) ACADEMIC YEAR 2021",
                      "name":"Dr. Rosino da Cruz,Lic.Dir.MD"
                   }
                ],
                "description":"<p>Presidente Autoridade Munic&iacute;pio (PAM) in carrying out its function as a representative of the central government must be regulated by law, as well as in the role and authority of the PAM in the urban management system. The Timor-Leste Council of Ministers has decreed Government Regulation No 2/2016 concerning Estatuto dos Presidentes da AutoridadesMunicipais i dos AdministradoresMunicipais where the existence of this Government Regulation further regulates the estate and authority of an envoy or deputy and president at the municipal to district level under the auspices of the Ministry of Home Affairs. domestic.</p>",
                "doi":"10.5281/zenodo.7752190",
                "journal":{
                   "issue":"6",
                   "pages":"22-29",
                   "title":"International Journal of Arts and Social Science",
                   "volume":"5"
                },
                "keywords":[
                   "theijbmt"
                ],
                "language":"eng",
                "license":{
                   "id":"CC-BY-4.0"
                },
                "publication_date":"2023-03-20",
                "references":[
                   "AdisasmitaRahardjo and AdisasmitaSaktiAdji. 2011. The Logic of Moving the Capital City of Jakarta. Yogyakarta: GrahaIlmu.",
                   "Anwar, Afendi. 2005. Regional and Rural Development Inequality: A Critical Review. Bogor : P4W Press",
                   "Development Planning Agency at Sub-National Level. 2009. Madiun Regency Spatial Plan for 2009- 2029.",
                   "Djojodipuro, Marsudi. 1992. Location Theory. Jakarta: Publishing Institute, Faculty of Economics, University of Indonesia.",
                   "Djunaidi Ahmad. 2012. Urban and Regional Planning Process. Yogyakarta :GadjahMada University Press",
                   "Doni Tri Prasetyo. 2009. \"Analysis of Regional Development in Kudus Regency, Central Java Province in 1997 and 2007\". Undergraduate Thesis.Surakarta : Faculty of Geography UMS.",
                   "Hadjisaroso, Poernomo. 1981. Basic Conception of Regional Development in Indonesia. Jakarta : Department of Public Work",
                   "Hanafiah, Djohan. 1989. Palembag New Age, Image of Palembang Tempo Doeloe. Palembang: Public Relations of the Palembang Municipal Government. inspire. 1990. Urban Development Strategy in Indonesia. Surabaya: National Business Publisher"
                ],
                "related_identifiers":[
                   {
                      "identifier":"10.5281/zenodo.7752189",
                      "relation":"isVersionOf",
                      "scheme":"doi"
                   }
                ],
                "relations":{
                   "version":[
                      {
                         "count":1,
                         "index":0,
                         "is_last":true,
                         "last_child":{
                            "pid_type":"recid",
                            "pid_value":"7752190"
                         },
                         "parent":{
                            "pid_type":"recid",
                            "pid_value":"7752189"
                         }
                      }
                   ]
                },
                "resource_type":{
                   "subtype":"article",
                   "title":"Journal article",
                   "type":"publication"
                },
                "title":"Authorities of the President of the Municipal In Urban Management System",
                "version":"https://www.ijassjournal.com/2022/V5I6/414665653.pdf"
             },
             "owners":[
                248847
             ],
             "revision":1,
             "stats":{
                "downloads":0.0,
                "unique_downloads":0.0,
                "unique_views":0.0,
                "version_downloads":0.0,
                "version_unique_downloads":0.0,
                "version_unique_views":0.0,
                "version_views":0.0,
                "version_volume":0.0,
                "views":0.0,
                "volume":0.0
             },
             "updated":"2023-03-20T10:57:35.696553+00:00"
          }
       ],
       "total":1719838
    },
    "links":{
       "next":"https://zenodo.org/api/records/?sort=mostrecent&type=publication&page=2&size=1",
       "self":"https://zenodo.org/api/records/?sort=mostrecent&type=publication&page=1&size=1"
    }
 }